{
    "version": "1.0.0",
    "summary": "Test Suites",
    "repository": "https://github.com/user/project.git",
    "license": "BSD3",
    "source-directories": [
        "../src",
        "."
    ],
    "exposed-modules": [],
    "dependencies": {
        "eeue56/elm-html-test": "5.1.1 <= v < 6.0.0",
        "elm-community/elm-test": "4.0.0 <= v < 5.0.0",
        "bartavelle/json-helpers": "1.3.0 <= v < 2.0.0",
        "elm-community/json-extra": "2.5.0 <= v < 3.0.0",
        "elm-community/list-extra": "6.1.0 <= v < 7.0.0",
        "elm-lang/core": "5.1.1 <= v < 6.0.0",
        "elm-lang/geolocation": "1.0.2 <= v < 2.0.0",
        "elm-lang/html": "2.0.0 <= v < 3.0.0",
        "elm-lang/http": "1.0.0 <= v < 2.0.0",
        "rundis/elm-bootstrap": "3.0.0 <= v < 4.0.0"
    },
    "elm-version": "0.18.0 <= v < 0.19.0"
}
